<?xml version="1.0" encoding="UTF-8"?>
<session version="1.0">
<refactoring comment="Delete resource &apos;testfrag&apos;" deleteContents="true" description="Delete resource &apos;testfrag&apos;" element1="/testfrag" flags="7" id="org.eclipse.ltk.core.refactoring.delete.resources" resources="1" stamp="1468752655272"/>
</session>